<?xml version="1.0" encoding="UTF-8"?>
<svg width="5.2917mm" height="4.1834mm" version="1.1" viewBox="0 0 5.2917 4.1834" xmlns="http://www.w3.org/2000/svg">
 <g transform="translate(-106.93 -81.691)">
  <g transform="matrix(.90831 0 0 .90831 90.879 30.046)">
   <rect x="17.668" y="57.296" width="5.8208" height="4.1682" ry=".15887" fill="#666" stroke-width=".23699"/>
   <path d="m17.852 56.859c-0.10039 0.0055-0.17953 0.09577-0.17953 0.20671v1.2991h5.8076v-0.13177c0.0083-0.02325 0.01326-0.04842 0.01326-0.07493v-0.67179c0-0.11452-0.08451-0.20671-0.18948-0.20671h-3.8498v-0.21394c0-0.11452-0.08451-0.20671-0.18948-0.20671h-1.4026c-0.0033 0-0.0067-1.77e-4 -0.0099 0z" fill="#878787" stroke-width=".17687"/>
  </g>
 </g>
</svg>
