<svg width="21mm" height="17.377mm" version="1.1" viewBox="0 0 21 17.377" xmlns="http://www.w3.org/2000/svg" xmlns:xlink="http://www.w3.org/1999/xlink">
 <defs>
  <linearGradient id="linearGradient180627" x1="128.18" x2="128.18" y1="55.615" y2="37.627" gradientTransform="matrix(.62243 0 0 .91936 636.84 15.51)" gradientUnits="userSpaceOnUse">
   <stop stop-color="#d47065" stop-opacity=".99796" offset="0"/>
   <stop stop-color="#da917a" offset="1"/>
  </linearGradient>
 </defs>
 <g transform="translate(91.881 -100.64)">
  <g transform="translate(-65.811 36.71)">
   <g transform="matrix(1.3716 0 0 1.3716 -991.6 -11.171)">
    <path d="m704.5 54.824c-0.26112 0.01115-0.46696 0.19418-0.46696 0.4191v2.634h15.14c-1e-3 -0.60457 1.1e-4 -1.1782 1.1e-4 -1.7812 0-0.23218-0.21981-0.4191-0.49284-0.4191h-10.013v-0.43376c0-0.23218-0.2198-0.4191-0.49283-0.4191h-3.6482c-9e-3 0-0.0174-3.59e-4 -0.0257 0z" fill="#fff" stroke="#c6c6c6" stroke-width=".13755"/>
    <path d="m704.05 57.869v8.7683c0 0.33772 0.18403 0.60954 0.41267 0.60954h14.296c0.22865 0 0.41268-0.27182 0.41268-0.60954v-8.7683z" fill="url(#linearGradient180627)" stroke="#a9584f" stroke-width=".18912"/>
    <path d="m704.16 67.111c0.0656 0.13999 0.20618 0.2367 0.37009 0.2367h14.068c0.16391 0 0.32526-0.09671 0.39087-0.2367z" fill="#a9584f" stroke="#a9584f" stroke-width=".15535"/>
   </g>
  </g>
 </g>
</svg>
